cccc/hardware/server-linux/server-linux.txt

The 1U racked mounted linux server

2024-06-21 tc Initial

Purchased:
    https://mitxpc.com/21581497/orders/0918fcccd478a69eb8f347e6d263a4df
    From:
       MitXpc.com
       sales@mitxpc.com

    order # C19183 under vendor@DinkumSoftware.com
    See server-linux-mitxpc-receipt.pdf in this directory.

    Person I emailed and talked to (seemed helpful and responsive)
       John Ho P: 510-226-6883 (x103) | www.mitxpc.com
       MITXPC, Inc. | 45437 Warm Springs Blvd, Fremont, CA 94539
       John Ho (MITXPC) <john.ho@mitxpc.com>

???  90SSXGAN3-0000000QA
S/N  F7S0R8000399




    
    
        

